Sintaxe básica do R
…
slice() para selecionar linhas específicas com
base na posição

filter() para selecionar linhas específicas
com base em uma condição

2.1.1 Selecionando
colunas específicas

PRRS %>%  # o nome de nossos dados
  select(Result, farm_type) # queremos selecionar apenas as colunas Result e farm_type

## # A tibble: 1,353 × 2
##    Result farm_type
##    <chr>  <chr>    
##  1 No     sow farm 
##  2 No     sow farm 
##  3 No     sow farm 
##  4 Yes    sow farm 
##  5 Yes    sow farm 
##  6 Yes    sow farm 
##  7 Yes    sow farm 
##  8 Yes    sow farm 
##  9 Yes    sow farm 
## 10 Yes    sow farm 
## # ℹ 1,343 more rows

Também podemos especificar quais colunas NÃO queremos mostrar em
nossos dados:

PRRS %>% 
  select(-Age, -id) # com '-' antes do nome, excluiremos a coluna dos dados

## # A tibble: 1,353 × 6
##    Result Sex   OtherSpecies name                    farm_type County       
##    <chr>  <chr>        <dbl> <chr>                   <chr>     <chr>        
##  1 No     H                0 Armstrong Research Farm sow farm  Pottawattamie
##  2 No     H                0 Armstrong Research Farm sow farm  Pottawattamie
##  3 No     H                0 Armstrong Research Farm sow farm  Pottawattamie
##  4 Yes    H                0 Armstrong Research Farm sow farm  Pottawattamie
##  5 Yes    H                0 Armstrong Research Farm sow farm  Pottawattamie
##  6 Yes    H                0 Armstrong Research Farm sow farm  Pottawattamie
##  7 Yes    M                0 Armstrong Research Farm sow farm  Pottawattamie
##  8 Yes    M                0 Armstrong Research Farm sow farm  Pottawattamie
##  9 Yes    M                0 Armstrong Research Farm sow farm  Pottawattamie
## 10 Yes    H                0 Armstrong Research Farm sow farm  Pottawattamie
## # ℹ 1,343 more rows
…
Para criar uma nova variável, podemos usar a função
mutate(). Por exemplo, vamos criar uma nova variável que
nos informará se o tipo de granja é uma granja de matrizes ou não. Para
isso, usaremos a variável farm_type, que já contém
informações sobre diferentes tipos de granjas.

# Criando uma nova variável
PRRS %>% # nome do conjunto de dados
  mutate( # mutate é a função que usamos para criar novas variáveis
    SowFarm = ifelse(farm_type == 'sow farm', 1, 0) # criaremos uma variável binária em que 1 = granja de matrizes, 0 = qualquer outro tipo de granja
  ) 

## # A tibble: 1,353 × 9
##    Result Sex     Age OtherSpecies    id name           farm_type County SowFarm
##    <chr>  <chr> <dbl>        <dbl> <dbl> <chr>          <chr>     <chr>    <dbl>
##  1 No     H        18            0    23 Armstrong Res… sow farm  Potta…       1
##  2 No     H        60            0    23 Armstrong Res… sow farm  Potta…       1
##  3 No     H        60            0    23 Armstrong Res… sow farm  Potta…       1
##  4 Yes    H        36            0    23 Armstrong Res… sow farm  Potta…       1
##  5 Yes    H        50            0    23 Armstrong Res… sow farm  Potta…       1
##  6 Yes    H        16            0    23 Armstrong Res… sow farm  Potta…       1
##  7 Yes    M        15            0    23 Armstrong Res… sow farm  Potta…       1
##  8 Yes    M        22            0    23 Armstrong Res… sow farm  Potta…       1
##  9 Yes    M        30            0    23 Armstrong Res… sow farm  Potta…       1
## 10 Yes    H        14            0    23 Armstrong Res… sow farm  Potta…       1
## # ℹ 1,343 more rows
…
